<svg width="304" height="152" viewBox="0 0 304 152" fill="none" xmlns="http://www.w3.org/2000/svg">
<g filter="url(#filter0_d)">
<path d="M290 8.00006L14 8C12.8954 8 12 8.89543 12 10V122.122C12 123.226 12.8954 124.122 14 124.122H127.492C132.485 124.122 137.355 125.68 141.421 128.578L149.513 134.345C150.902 135.336 152.767 135.336 154.156 134.345L162.248 128.578C166.314 125.68 171.184 124.122 176.178 124.122L290 124.122C291.105 124.122 292 123.227 292 122.122V10.0001C292 8.89549 291.105 8.00006 290 8.00006Z" fill="white"/>
</g>
<defs>
<filter id="filter0_d" x="0" y="0" width="304" height="151.088" filterUnits="userSpaceOnUse" color-interpolation-filters="sRGB">
<feFlood flood-opacity="0" result="BackgroundImageFix"/>
<feColorMatrix in="SourceAlpha" type="matrix" values="0 0 0 0 0 0 0 0 0 0 0 0 0 0 0 0 0 0 127 0"/>
<feOffset dy="4"/>
<feGaussianBlur stdDeviation="6"/>
<feColorMatrix type="matrix" values="0 0 0 0 0 0 0 0 0 0 0 0 0 0 0 0 0 0 0.16 0"/>
<feBlend mode="normal" in2="BackgroundImageFix" result="effect1_dropShadow"/>
<feBlend mode="normal" in="SourceGraphic" in2="effect1_dropShadow" result="shape"/>
</filter>
</defs>
</svg>
